<svg width="256" height="256" viewBox="0 0 256 256" fill="none" xmlns="http://www.w3.org/2000/svg">
<g clip-path="url(#clip0_1366_8)">
<path d="M242.5 107.5C242.5 140.913 201.5 171.5 128.5 166.5C60.2928 166.5 4.5 147.5 4.5 102C4.5 68.5868 60.2928 49 128.5 49C196.707 49 250.5 72 242.5 107.5Z" fill="#B79274"/>
<path d="M101.727 46.2504C94.3236 46.7507 87.7202 47.5011 85.1689 48.2015C84.0683 48.4516 80.1663 49.0519 76.4643 49.4521C72.7624 49.8523 68.7103 50.5527 67.4597 51.0029C66.209 51.4532 62.2069 52.6038 58.555 53.5543C54.8531 54.4547 50.801 55.7054 49.5504 56.2557C45.2982 58.1566 43.2971 58.3567 38.5447 57.4062C35.4931 56.8059 31.6411 56.5558 25.688 56.5558C12.4311 56.5558 7.42849 58.1066 7.42849 62.2087C7.42849 63.0091 7.87873 64.2098 8.47904 64.9602C9.62964 66.4109 11.4806 66.611 15.1825 65.7606C16.2831 65.5105 18.9845 65.1603 21.1856 65.0102L25.1877 64.71L23.4368 65.8106C14.232 71.5636 9.22943 75.9159 5.67758 81.2686C1.17525 88.0221 -0.375559 93.9252 0.0746751 102.48C2.07571 138.849 30.0402 162.061 81.4669 170.065C95.174 172.216 103.929 172.866 123.139 173.166C136.395 173.366 141.498 173.617 141.298 174.017C141.148 174.317 140.247 176.418 139.247 178.619C136.646 184.572 135.495 190.325 135.145 198.93L134.845 206.284L136.395 207.784C137.246 208.635 138.396 209.335 138.947 209.335C140.798 209.335 153.154 205.933 157.807 204.182C169.863 199.53 179.618 192.726 186.972 183.822C188.022 182.621 188.022 182.571 188.573 183.572C190.874 187.574 198.678 192.576 206.532 195.078C215.837 197.979 233.046 199.73 246.002 199.03C252.106 198.73 252.856 198.58 253.906 197.529C256.008 195.428 255.257 192.126 250.205 182.121C243.751 169.214 234.847 160.009 225.142 156.007L222.49 154.957L227.643 151.505C233.746 147.453 242.15 139.299 245.702 133.946C252.806 123.24 256.658 109.533 255.908 97.5271C255.607 92.3244 254.057 87.2717 251.455 82.9195C247.753 76.7163 239.999 69.8627 231.445 65.2603C229.294 64.1097 227.543 63.1092 227.543 63.0092C227.543 62.609 234.847 64.3599 236.848 65.2103C238.148 65.8106 239.899 66.2608 240.8 66.2608C244.452 66.2608 245.952 61.5084 243.051 59.0571C241.2 57.5063 234.747 55.4052 229.594 54.7048C225.342 54.0545 217.037 54.4047 211.935 55.4552C208.983 56.0055 208.033 56.0055 204.181 55.2051C201.779 54.7048 197.627 53.9545 195.026 53.5042C192.425 53.054 189.173 52.3536 187.772 51.9534C183.87 50.8529 158.007 47.251 150.003 46.7007C140.348 46.0504 109.281 45.7502 101.727 46.2504ZM147.251 54.5047C152.504 54.955 159.007 55.6053 161.759 56.0055C164.51 56.4057 168.212 56.856 170.013 57.0561C181.419 58.1066 193.775 60.5078 199.678 62.809C201.029 63.3593 204.681 64.4599 207.883 65.2603C224.691 69.6626 237.948 81.919 240.249 95.1258C240.5 96.7267 240.399 96.8267 236.247 99.278C231.095 102.33 224.091 105.881 217.337 108.833C213.085 110.684 212.285 111.234 211.735 112.635C210.784 114.886 211.785 117.337 214.036 118.288C215.487 118.888 215.937 118.838 219.689 117.287C221.94 116.387 227.443 113.786 231.945 111.534L240.099 107.382L239.799 109.183C238.448 117.287 234.546 126.742 230.044 132.795L227.543 136.147L224.191 136.697C199.328 140.8 169.463 142.801 147.751 141.85C133.144 141.2 127.341 140.75 127.841 140.299C128.041 140.099 130.592 139.649 133.494 139.349C140.147 138.548 154.305 136.247 162.759 134.546C179.118 131.195 200.729 125.091 202.58 123.24C203.931 121.89 203.88 118.788 202.43 117.437C201.779 116.887 200.879 116.287 200.379 116.137C199.878 115.937 196.327 116.737 192.375 117.988C183.27 120.789 171.564 123.741 160.508 126.042C150.453 128.143 149.402 128.143 134.595 125.992C110.732 122.54 94.6238 118.488 87.2199 113.986C83.518 111.784 81.517 111.734 79.766 113.836C78.1152 115.737 78.1152 117.287 79.716 119.188C83.0177 123.09 98.4257 128.643 113.383 131.295C115.335 131.645 116.885 132.045 116.735 132.195C116.435 132.495 109.782 133.096 98.6759 133.796L89.5711 134.396L82.6676 132.545C74.6134 130.444 61.8568 126.242 54.703 123.34C49.0501 120.989 48.0996 120.889 46.2987 122.29C44.6478 123.591 44.1476 125.792 45.1481 127.693C45.9985 129.394 50.9511 131.595 63.2575 135.797C87.37 144.051 112.033 148.654 141.248 150.354C152.304 151.005 178.067 150.705 188.773 149.804C196.427 149.154 212.735 147.353 214.536 146.953C217.488 146.302 206.282 153.006 201.529 154.757C185.021 160.76 162.859 164.062 135.245 164.662C70.111 166.013 27.9391 151.555 13.8818 123.04C11.6807 118.538 9.42953 111.534 9.42953 109.233C9.42953 108.633 11.4306 109.733 17.0835 113.485C21.2857 116.237 26.6385 119.538 28.9897 120.739C33.0418 122.89 33.3419 122.94 34.8928 122.29C35.8933 121.89 36.8438 120.989 37.344 119.939C38.0444 118.438 38.0444 118.138 37.344 116.587C36.6937 115.286 35.5431 114.386 32.2914 112.585C26.7385 109.583 18.2841 103.98 12.9814 99.8783L8.82922 96.6266L9.12938 94.5755C9.97982 89.3228 14.7323 82.3692 20.4853 78.067C29.1398 71.5636 38.0944 67.7616 55.9537 63.0092C58.3049 62.4089 60.8062 61.6585 61.5566 61.3583C63.7577 60.4578 71.3617 58.857 76.2142 58.2567C78.7155 57.9565 82.3174 57.3562 84.2184 56.956C96.5748 54.3046 129.742 53.054 147.251 54.5047Z" fill="black"/>
<path d="M26.0382 85.5208C23.3368 86.6714 22.6364 89.6229 24.4373 91.9241C26.5884 94.6255 46.7989 101.129 64.208 104.731C86.6696 109.333 107.03 111.134 130.993 110.634C160.358 110.034 181.369 106.982 210.034 99.2779C223.241 95.7261 229.894 93.3749 230.995 91.9241C232.896 89.5729 231.995 86.3712 229.194 85.3707C228.043 85.0205 225.942 85.4707 217.788 87.872C212.285 89.4728 205.882 91.5239 203.53 92.3243C198.178 94.2253 195.676 94.8756 188.773 96.2263C185.771 96.8266 181.919 97.6771 180.268 98.0273C178.617 98.4275 176.016 98.8777 174.515 99.0278C173.014 99.2279 169.963 99.6781 167.762 100.028C156.856 101.879 130.492 102.38 103.979 101.329C90.8218 100.779 88.1704 100.529 79.716 98.9778C74.5133 98.0273 68.21 96.7766 65.7087 96.2263C63.2575 95.626 59.4055 94.7756 57.2043 94.2753C51.0511 92.9246 41.8964 90.3733 39.9454 89.4728C37.9944 88.5724 30.8907 85.871 28.8896 85.2706C28.0892 85.0205 27.0387 85.1206 26.0382 85.5208Z" fill="black"/>
<g filter="url(#filter0_d_1366_8)">
<path d="M66.887 36.5312L127.47 48.2142L117.441 100.218L56.8584 88.5349L66.887 36.5312Z" fill="#34495E"/>
<path d="M60.6058 89.2576L113.069 99.3748L110.895 110.653L58.4309 100.535L60.6058 89.2576Z" fill="#34495E"/>
<path d="M67.4556 87.3293L78.0732 89.3768L75.2942 103.787L64.6766 101.74L67.4556 87.3293Z" fill="#E74C3C"/>
<path d="M95.6171 42.0716L119.975 46.7689L115.867 68.0716L91.509 63.3743L95.6171 42.0716Z" fill="#E74C3C"/>
<path d="M92.0331 67.3745L115.767 71.9514L112.867 86.9886L89.1333 82.4117L92.0331 67.3745Z" fill="#E74C3C"/>
<path d="M66.0147 35.3164L65.6573 35.5007L64.2209 42.7402C62.8075 49.9308 62.7951 49.995 62.9893 50.379C63.157 50.6912 63.3103 50.8007 63.6982 50.8755C64.6421 51.0575 64.5538 51.307 65.9835 43.8931L67.2547 37.3014L75.1423 38.8225L64.2396 95.359L60.7483 94.6857L61.2191 92.2443C61.509 90.741 61.658 89.6902 61.6047 89.48C61.4686 88.934 61.0746 88.7514 59.2126 88.3924L57.467 88.0557L60.7329 71.1205C64.3828 52.1936 64.1853 53.6349 63.2026 53.4453C62.8147 53.3705 62.6317 53.4152 62.3753 53.6323L62.0368 53.9269L58.662 71.4275C55.2945 88.8895 55.2871 88.9281 55.4942 89.3145C55.6884 89.6985 55.7118 89.7163 57.5817 90.1036L59.4751 90.5087L58.493 95.81L57.498 101.109L57.7846 101.431L58.0817 101.768L97.1835 109.308L97.512 109.065C97.9484 108.75 98.0852 108.11 97.803 107.695C97.5939 107.388 97.4259 107.356 87.5728 105.456L77.5517 103.523L78.2207 100.054L110.547 106.288L109.878 109.757L105.546 108.922C101.383 108.119 101.199 108.097 100.906 108.294C100.475 108.584 100.369 109.27 100.677 109.689C100.92 110.029 100.972 110.039 105.847 110.979C110.618 111.899 110.776 111.916 111.162 111.724L111.547 111.532L112.594 106.243L113.654 100.957L115.562 101.285C117.442 101.621 117.47 101.613 117.806 101.331L118.129 101.047L128.37 47.5945L128.107 47.2905C127.867 47.0044 127.572 46.9342 121.753 45.8121L115.637 44.6326L115.324 44.8654C114.808 45.2457 114.694 45.77 115.018 46.2457C115.206 46.5218 115.395 46.5849 117.296 46.9515L119.365 47.3505L115.97 64.9539L92.9535 60.5153L96.3483 42.9119L103.977 44.3831C111.438 45.8219 111.606 45.8543 111.914 45.6472C112.392 45.3262 112.481 44.7969 112.143 44.252L111.939 43.9195L89.1427 39.5233C66.9022 35.2344 66.3592 35.1297 66.0147 35.3164ZM86.7 82.5117L86.9638 82.8825L87.2122 83.2635L112.944 88.2257L113.267 87.9415L113.605 87.647L121.304 47.7245L126.218 48.672L116.43 99.4264L114.684 99.0897C112.822 98.7307 112.389 98.7537 112.059 99.2099C111.932 99.3852 111.679 100.416 111.389 101.919L110.919 104.361L78.5924 98.1268L89.4951 41.5903L94.4087 42.5379L86.7 82.5117ZM111.906 86.0265L89.0191 81.6129L91.5218 68.6353L114.409 73.0489L111.906 86.0265ZM75.4828 103.124L65.1384 101.13L67.6659 88.0235L78.0103 90.0183L75.4828 103.124ZM63.1989 100.756L59.7076 100.082L60.3766 96.6131L63.8679 97.2863L63.1989 100.756Z" fill="black"/>
<path d="M87.9696 84.9689C87.5132 85.0408 87.2314 85.3196 87.1447 85.7693C87.0833 86.1573 87.1969 86.4724 87.8625 87.6803C89.034 89.8119 89.2279 89.8493 91.1617 88.2365C92.1055 87.4457 92.428 87.0947 92.485 86.7992C92.5841 86.2852 92.2367 85.7917 91.6936 85.687C91.3445 85.6197 91.1541 85.7029 90.492 86.2149L89.7043 86.8227L89.194 85.9913C88.6684 85.1703 88.3694 84.9127 87.9696 84.9689Z" fill="black"/>
<path d="M106.193 76.2889C105.657 76.4254 105.5 76.8217 105.02 79.3144L104.559 81.7043L105.165 82.5942L107.324 83.0107C109.548 83.4395 110.124 83.444 110.397 83.0035C110.458 82.8953 110.732 81.6821 110.997 80.3072C111.642 76.9665 111.783 77.2069 108.729 76.6313C107.475 76.3894 106.363 76.2417 106.193 76.2889ZM108.833 81.1692L106.88 80.7927L107.354 78.3385L109.214 78.7772L108.833 81.1692Z" fill="black"/>
<path d="M100.544 48.9052C100.199 49.092 100.174 49.1537 99.6964 51.4206C99.1541 53.9547 99.1524 54.3809 99.6484 54.7297C99.8484 54.8749 101.716 55.275 105.763 56.0555C111.892 57.2375 112.182 57.2666 112.508 56.7565C112.569 56.6483 112.833 55.4865 113.084 54.1888C113.537 51.8374 113.542 51.8117 113.278 51.4409L113.03 51.0599L106.965 49.8904C101.185 48.7758 100.873 48.7288 100.544 48.9052Z" fill="black"/>
</g>
<g clip-path="url(#clip1_1366_8)" filter="url(#filter1_d_1366_8)">
<rect x="52.0173" y="108.459" width="44.73" height="8.82" transform="rotate(-15.5799 52.0173 108.459)" fill="#34495E"/>
<rect x="34.2441" y="72.8645" width="59.85" height="41.58" transform="rotate(-15.5799 34.2441 72.8645)" fill="#34495E"/>
<rect x="41.6663" y="76.0271" width="47.88" height="10.71" transform="rotate(-15.5799 41.6663 76.0271)" fill="#ECF0F1"/>
<rect x="46.7019" y="87.0498" width="45.99" height="17.64" transform="rotate(-15.5799 46.7019 87.0498)" fill="#F1C40F"/>
<path d="M34.8704 71.5096C34.1062 72.0676 33.6 73.0007 33.5094 73.9585C33.4475 74.6528 33.5083 74.9168 34.4866 78.4252C35.055 80.4638 35.583 82.22 35.6483 82.3167C35.7874 82.4951 36.437 82.6716 36.7096 82.5956C36.8044 82.5692 36.9762 82.4063 37.0972 82.2448L37.3189 81.9403L36.3041 78.0717C35.3422 74.3927 35.2945 74.1761 35.4424 73.79C35.5232 73.5758 35.7501 73.2443 35.9455 73.0748C36.2686 72.7676 37.8299 72.3195 63.4907 65.1646C89.1515 58.0096 90.7194 57.5853 91.1548 57.681C91.4098 57.7249 91.7755 57.8912 91.9554 58.0326C92.2969 58.2951 92.3002 58.3069 97.3789 76.384C102.158 93.4333 102.444 94.5033 102.36 94.9355C102.163 95.923 102.039 95.983 99.0363 96.8969C96.5519 97.6535 96.3215 97.7433 96.0879 98.0511C95.4762 98.8348 95.4684 98.9903 96.0271 101.223C96.5694 103.397 96.5702 103.537 96.1158 104.29L95.8475 104.748L76.0655 110.264L56.2836 115.779L55.817 115.526C55.0387 115.117 54.9668 114.997 54.3061 112.856C53.6288 110.656 53.5418 110.527 52.6127 110.173C52.2536 110.031 52.0099 110.073 49.4925 110.711C46.4503 111.483 46.3133 111.495 45.6454 110.749C45.3381 110.426 45.0817 109.552 41.724 97.5099C38.1746 84.7803 38.1317 84.6262 37.8285 84.4552C37.3586 84.1902 36.8641 84.3409 36.5584 84.8477L36.367 85.1693L40.0756 98.3783L43.7993 111.596L44.1956 112.009C44.8068 112.643 45.2984 112.941 46.1035 113.125L46.8308 113.305L49.4838 112.604L52.125 111.906L52.5976 113.601C53.1561 115.604 53.4854 116.189 54.4022 116.866C54.8497 117.188 55.2846 117.374 55.9447 117.496L56.8598 117.663L76.5943 112.16L96.3288 106.658L97.0257 106.042C97.5272 105.595 97.8035 105.212 98.0197 104.704C98.454 103.651 98.4329 102.979 97.8744 100.976L97.4018 99.2815L100.035 98.509L102.656 97.7397L103.197 97.2057C103.849 96.5642 104.168 95.8749 104.244 94.9593C104.31 94.2769 104.21 93.9213 99.2201 76.0239L94.134 57.7828L93.6967 57.1766C93.117 56.3802 92.2076 55.8673 91.2261 55.7833L90.4811 55.7228L62.9627 63.4085L35.441 71.0822L34.8704 71.5096Z" fill="black"/>
<path d="M40.8664 75.8798L40.6494 76.2468L44.6945 90.7544C48.7363 105.25 48.7396 105.262 49.0778 105.513L49.4008 105.755L72.9755 99.1814L96.5503 92.6081L96.7014 92.2338C96.8525 91.8595 96.8247 91.714 95.8928 88.3716C94.9377 84.9462 94.9245 84.8988 94.5778 84.6633C94.1098 84.3595 93.4954 84.4925 93.2423 84.959C93.0628 85.2773 93.0807 85.3873 93.8416 88.2537L94.6323 91.2268L73.7243 97.0565L52.8045 102.889L50.5572 94.8297L48.31 86.77L69.2298 80.937L90.1496 75.104L91.1212 78.5886C91.716 80.7221 92.1766 82.1904 92.3038 82.3721C92.753 82.975 93.5256 82.9512 93.8813 82.3027L94.0983 81.9356L91.4346 72.3825L88.7709 62.8293L88.3953 62.6274L88.0282 62.4104L64.5482 68.9573L41.0683 75.5041L40.8664 75.8798ZM88.5331 68.8483L89.7393 73.1745L67.4565 79.3876L45.1736 85.6006L43.9674 81.2744L42.7611 76.9482L65.044 70.7352L87.3268 64.5221L88.5331 68.8483Z" fill="black"/>
<path d="M49.3135 79.1453C49.0367 79.6184 49.1669 80.1314 49.6302 80.3727L49.9755 80.5574L66.5098 75.9472L83.056 71.3337L83.2289 70.9917C83.4702 70.5284 83.3229 70.0457 82.8563 69.7926L82.4892 69.5756L66.0023 74.1726L49.5153 78.7696L49.3135 79.1453Z" fill="black"/>
<path d="M58.3916 89.7586C58.2165 89.9096 58.058 90.1198 58.0436 90.2516C58.0378 90.3682 58.1873 91.0418 58.3823 91.7411C58.7095 92.9145 58.7662 93.0265 59.0812 93.1941C59.5293 93.4268 60.1253 93.2734 60.3561 92.8642C60.5099 92.5914 60.484 92.407 60.1503 91.2099C59.8396 90.0957 59.728 89.833 59.5059 89.6778C59.1171 89.4285 58.7805 89.4585 58.3916 89.7586Z" fill="black"/>
<path d="M79.8197 83.7327C79.4511 84.0143 79.4521 84.3845 79.8355 85.7594C80.1594 86.9209 80.2326 87.0921 80.5055 87.2459C80.9299 87.4853 81.5514 87.2864 81.7756 86.8535C81.9433 86.5385 81.924 86.3778 81.5902 85.1807C81.2631 84.0073 81.1898 83.8361 80.9169 83.6822C80.7502 83.5882 80.5664 83.5245 80.5071 83.541C80.4479 83.5575 80.3227 83.5669 80.2213 83.5696C80.1284 83.5572 79.9454 83.6338 79.8197 83.7327Z" fill="black"/>
<path d="M66.749 89.587C66.6497 89.7808 66.6039 90.0746 66.6535 90.2524C66.7857 90.7265 67.7136 91.2597 68.7485 91.4438C69.5707 91.5978 69.7465 91.5871 70.7777 91.2996C71.7733 91.022 71.9767 90.9269 72.5427 90.437C73.3278 89.771 73.9005 88.7554 73.7617 88.2576C73.5337 87.4398 72.4555 87.4211 71.9366 88.2173C71.4485 88.9409 71.0477 89.2443 70.2654 89.4624C69.4832 89.6805 68.9832 89.6283 68.1911 89.2616C67.5829 88.9585 67.0074 89.0935 66.749 89.587Z" fill="black"/>
<path d="M69.2836 102.983C69.1124 103.056 68.8637 103.355 68.725 103.637C68.3464 104.432 68.6574 105.227 69.5087 105.577C71.4473 106.391 74.7826 107.632 75.0243 107.629C75.1883 107.621 75.4491 107.549 75.6051 107.467C75.9698 107.263 79.4556 102.676 79.5527 102.291C79.7593 101.429 79.0313 100.559 78.1118 100.56C77.6672 100.569 69.9768 102.675 69.2836 102.983ZM75.949 104.165C75.3899 104.908 74.8754 105.537 74.8076 105.569C74.7365 105.589 73.9472 105.323 73.057 104.971L71.4367 104.337L74.1984 103.567L76.96 102.797L75.949 104.165Z" fill="black"/>
</g>
<g clip-path="url(#clip2_1366_8)">
<g filter="url(#filter2_d_1366_8)">
<path d="M127.994 76.7441C123.312 81.3495 121.029 87.666 121.712 94.121C122.09 97.6391 124.566 105.984 126.999 111.874C132.056 124.204 138.787 133.463 145.461 137.281C148.272 138.913 152.206 139.22 155.007 138.05C156.317 137.488 158.009 136.146 159.112 134.789C162.74 130.279 164.841 122.339 165.07 112.351L165.131 109.48L177.873 101.304L190.615 93.1273L193.25 94.2681C203.975 98.8994 213.13 99.9646 218.755 97.191C222.461 95.3701 224.593 90.9152 223.997 86.2607C223.373 81.3457 221.563 77.0059 217.517 70.7358C214.799 66.5374 212.261 63.2687 208.75 59.5332C204.303 54.7734 197.786 49.0669 194.745 47.258C189.5 44.1478 183.383 43.4771 177.389 45.3501C176.022 45.7867 175.431 46.0961 172.794 47.8111C170.213 49.4675 169.598 49.9552 168.719 50.9369C167.204 52.6282 165.941 54.5298 165.124 56.3308L164.408 57.9277L154.23 64.4582L144.053 70.9886L142.303 70.9742C140.298 70.9608 138.173 71.3029 135.972 71.9959C133.989 72.5952 129.466 75.3122 127.994 76.7441ZM138.902 84.4837C139.386 84.4054 140.116 84.4941 140.519 84.6529C141.208 84.9305 141.389 85.1395 142.767 87.1795L144.289 89.4063L146.443 88.0242C148.317 86.8215 148.71 86.6387 149.366 86.6123C151.611 86.5649 153.082 88.8937 152.241 91.1278C152.02 91.6875 151.722 91.9478 149.83 93.2315L147.686 94.7004L149.023 96.9293C150.504 99.345 150.595 99.7042 150.044 101.125C149.709 102.013 148.164 103.005 147.216 102.94C145.695 102.848 145.407 102.615 143.828 100.263L142.359 98.1186L140.146 99.4454C138.027 100.736 137.901 100.793 137.041 100.719C135.872 100.633 135.148 100.192 134.525 99.2224C133.924 98.2852 133.845 97.2217 134.306 96.2761C134.604 95.6906 134.934 95.4092 136.808 94.2065L138.962 92.8244L137.572 90.5133C136.292 88.41 136.177 88.1588 136.211 87.417C136.259 86.5508 136.942 85.3001 137.616 84.8676C137.846 84.7199 138.418 84.5619 138.902 84.4837ZM181.491 57.4573C184.445 57.3953 185.614 61.4962 183.082 63.1209C181.175 64.3447 178.585 63.1288 178.363 60.9032C178.268 59.8503 178.367 59.4618 178.983 58.6489C179.554 57.9111 180.456 57.4717 181.491 57.4573ZM191.336 59.7051C192.524 59.6392 193.645 60.2658 194.19 61.332C194.949 62.8409 194.554 64.3947 193.156 65.2914C191.496 66.357 189.314 65.5981 188.626 63.7652C187.911 61.8561 189.274 59.8208 191.336 59.7051ZM188.366 69.9437C189.924 69.4778 191.718 70.3925 192.185 71.8801C192.477 72.8064 192.086 74.4036 191.408 75.0474C189.86 76.5051 187.077 75.7844 186.429 73.7626C186.137 72.8363 186.376 71.5454 186.962 70.8674C187.543 70.2165 187.608 70.1743 188.366 69.9437Z" fill="#34495E"/>
<path d="M127.462 111.684L127.461 111.683C125.035 105.809 122.58 97.5166 122.209 94.0684C121.542 87.7673 123.77 81.6012 128.344 77.1012C129.036 76.4286 130.491 75.4168 132.048 74.4871C133.607 73.5561 135.188 72.7551 136.117 72.4746L136.122 72.4729C138.281 71.7933 140.353 71.4613 142.299 71.4742L127.462 111.684ZM127.462 111.684C132.504 123.979 139.18 133.112 145.709 136.847L145.709 136.847L145.712 136.849C148.396 138.407 152.165 138.694 154.812 137.59C156.033 137.065 157.661 135.781 158.723 134.475C162.247 130.094 164.342 122.289 164.57 112.339L164.631 109.469L164.637 109.203L164.861 109.059L177.603 100.883L190.345 92.7065L190.569 92.5626L190.814 92.6685L193.449 93.809L127.462 111.684ZM144.049 71.4886L142.3 71.4742L193.449 93.8092C198.779 96.111 203.701 97.5181 207.972 98.0097C212.249 98.5017 215.837 98.0722 218.534 96.7426L218.534 96.7423C222.015 95.0319 224.074 90.8056 223.501 86.3242L223.501 86.3237C222.89 81.5108 221.121 77.2433 217.097 71.0075C214.395 66.8335 211.875 63.5886 208.385 59.8756L208.384 59.8745C203.948 55.1261 197.47 49.4611 194.49 47.688C189.372 44.6529 183.403 43.9953 177.54 45.8269C176.241 46.2417 175.697 46.5197 173.067 48.2303L173.064 48.2319C170.488 49.885 169.922 50.3425 169.091 51.2704L169.091 51.2705C167.607 52.9284 166.373 54.7874 165.58 56.5362C165.58 56.5366 165.579 56.537 165.579 56.5375L164.864 58.1323L164.803 58.2681L164.678 58.3485L154.5 64.879L144.323 71.4094L144.198 71.4898L144.049 71.4886ZM140.702 84.1876L140.706 84.1891C141.106 84.3502 141.393 84.5117 141.758 84.9234C142.089 85.2957 142.5 85.8906 143.181 86.8986C143.181 86.8989 143.181 86.8992 143.181 86.8996L144.428 88.7231L146.173 87.6034C148.017 86.4197 148.529 86.1456 149.346 86.1127L149.346 86.1126L149.356 86.1124C152.013 86.0563 153.653 88.7955 152.709 91.304L152.709 91.304L152.706 91.3115C152.564 91.671 152.385 91.9407 151.991 92.2848C151.625 92.6043 151.05 93.008 150.112 93.6446C150.112 93.6448 150.111 93.645 150.111 93.6453L148.357 94.8469L149.45 96.6681C149.45 96.6688 149.45 96.6694 149.451 96.6701C150.177 97.8547 150.62 98.6205 150.781 99.2817C150.958 100.008 150.793 100.576 150.511 101.304C150.288 101.895 149.713 102.437 149.13 102.811C148.547 103.185 147.815 103.481 147.185 103.439C146.405 103.392 145.82 103.305 145.234 102.841C144.7 102.419 144.188 101.697 143.414 100.544C143.414 100.543 143.413 100.542 143.413 100.542L142.212 98.7895L140.406 99.8725C140.406 99.8729 140.405 99.8732 140.405 99.8736C139.364 100.507 138.761 100.871 138.312 101.056C137.801 101.267 137.461 101.257 137.001 101.217C136.362 101.17 135.809 101.023 135.321 100.731C134.833 100.439 134.445 100.023 134.105 99.4924C133.416 98.4187 133.314 97.1702 133.857 96.057L133.857 96.057L133.86 96.0496C134.231 95.3204 134.693 94.9693 136.538 93.7857L138.283 92.6659L137.144 90.7733C137.144 90.7729 137.144 90.7726 137.144 90.7722C136.511 89.733 136.142 89.1118 135.941 88.6562C135.719 88.1525 135.692 87.8241 135.712 87.3936L135.712 87.3895C135.742 86.8564 135.958 86.253 136.241 85.7389C136.521 85.2289 136.91 84.7269 137.346 84.4468C137.526 84.3315 137.786 84.2391 138.024 84.1696C138.277 84.0959 138.561 84.0324 138.822 83.9901C139.123 83.9414 139.474 83.9471 139.795 83.9824C140.115 84.0175 140.445 84.0866 140.702 84.1876ZM177.866 60.9526L177.866 60.9483C177.817 60.4096 177.81 59.9751 177.924 59.5549C178.039 59.1309 178.265 58.7691 178.584 58.347L178.587 58.3429C179.259 57.4754 180.308 56.9742 181.482 56.9574C183.229 56.9215 184.431 58.1261 184.825 59.5205C185.22 60.915 184.835 62.5904 183.353 63.5417C181.143 64.9592 178.125 63.5644 177.866 60.9526ZM191.308 59.2059L191.308 59.2059C192.689 59.1293 193.998 59.858 194.635 61.1045L194.637 61.1073C195.064 61.9559 195.179 62.8457 194.966 63.6668C194.753 64.4893 194.22 65.2026 193.426 65.7122C191.491 66.9541 188.955 66.0642 188.158 63.9411L188.157 63.9405C187.321 61.7043 188.922 59.3398 191.308 59.2059ZM188.22 69.4654L188.222 69.4646C190.026 68.9253 192.108 69.9659 192.662 71.7303C192.845 72.3128 192.804 73.0441 192.646 73.6887C192.489 74.3311 192.189 74.9956 191.753 75.4099L191.751 75.4114C190.832 76.2771 189.564 76.48 188.456 76.1939C187.349 75.9078 186.338 75.1162 185.953 73.9151L185.953 73.9133C185.777 73.3563 185.766 72.7169 185.874 72.1312C185.982 71.5479 186.217 70.965 186.584 70.5404L186.584 70.5403L186.589 70.5347C186.868 70.2217 187.074 69.9939 187.323 69.8301C187.577 69.663 187.855 69.5766 188.22 69.4654Z" stroke="#2C3E50"/>
</g>
<ellipse cx="143.298" cy="94.3791" rx="12.0858" ry="11.669" transform="rotate(-32.687 143.298 94.3791)" fill="#ECF0F1"/>
<ellipse cx="184.938" cy="66.6695" rx="12.9193" ry="12.5025" transform="rotate(-32.687 184.938 66.6695)" fill="#34495E"/>
<path fill-rule="evenodd" clip-rule="evenodd" d="M140.519 84.6529C140.116 84.4941 139.386 84.4055 138.902 84.4837C138.418 84.5619 137.847 84.7199 137.616 84.8676C136.942 85.3002 136.259 86.5508 136.212 87.417C136.177 88.1588 136.292 88.4101 137.572 90.5134L138.962 92.8245L136.808 94.2065C134.934 95.4092 134.604 95.6907 134.306 96.2761C133.845 97.2218 133.924 98.2853 134.526 99.2224C135.148 100.192 135.872 100.633 137.041 100.719C137.901 100.793 138.027 100.736 140.146 99.4455L142.359 98.1186L143.828 100.263C145.407 102.616 145.695 102.848 147.217 102.94C148.164 103.005 149.709 102.013 150.045 101.125C150.595 99.7043 150.504 99.345 149.023 96.9294L147.686 94.7004L149.831 93.2315C151.723 91.9479 152.02 91.6875 152.241 91.1278C153.082 88.8937 151.611 86.5649 149.367 86.6123C148.71 86.6388 148.317 86.8215 146.443 88.0242L144.289 89.4063L142.767 87.1796C141.389 85.1396 141.208 84.9305 140.519 84.6529ZM149.951 103.975C155.762 100.246 157.45 92.5119 153.721 86.7004C149.992 80.889 142.258 79.2009 136.447 82.9299C130.635 86.6589 128.947 94.393 132.676 100.204C136.405 106.016 144.139 107.704 149.951 103.975Z" fill="#2C3E50"/>
<circle cx="185.289" cy="66.4444" r="12.5025" transform="rotate(-32.687 185.289 66.4444)" fill="#2C3E50"/>
<ellipse cx="181.688" cy="60.8324" rx="3.33401" ry="3.33401" transform="rotate(-32.687 181.688 60.8324)" fill="#F1C40F"/>
<ellipse cx="191.603" cy="62.3932" rx="3.33401" ry="3.33401" transform="rotate(-32.687 191.603 62.3932)" fill="#2ECC71"/>
<ellipse cx="189.34" cy="72.7579" rx="3.33401" ry="3.33401" transform="rotate(-32.687 189.34 72.7579)" fill="#3498DB"/>
<ellipse cx="178.975" cy="70.4957" rx="3.33401" ry="3.33401" transform="rotate(-32.687 178.975 70.4957)" fill="#E74C3C"/>
<path d="M179.269 87.8587C180.164 89.2532 179.427 90.134 173.616 93.8623C167.806 97.5906 166.698 97.8939 165.803 96.4995C164.908 95.105 165.646 94.224 171.456 90.4958C177.266 86.7675 178.375 86.4642 179.269 87.8587Z" fill="#2C3E50"/>
</g>
<path d="M235 133.5C235 150.345 187.08 167 125.5 167C63.9202 167 29.5001 145 11 131.5C4.99994 62.0002 -29 89.0001 123 106.5C189.5 121 297.5 39.5 235 133.5Z" fill="#B79274"/>
<path fill-rule="evenodd" clip-rule="evenodd" d="M48.0545 56.8886C44.7561 58.1886 42.7043 58.2381 38.5447 57.4061C35.4931 56.8058 31.6411 56.5557 25.688 56.5557C12.4311 56.5557 7.42849 58.1065 7.42849 62.2086C7.42849 63.009 7.87873 64.2097 8.47904 64.9601C9.62964 66.4108 11.4806 66.6109 15.1825 65.7605C16.2831 65.5104 18.9845 65.1602 21.1856 65.0101L25.1877 64.7099L23.4368 65.8105C14.232 71.5635 9.22943 75.9158 5.67758 81.2685C1.17525 88.022 -0.375559 93.9251 0.0746751 102.48C2.07571 138.848 30.0402 162.06 81.4669 170.065C95.174 172.216 103.929 172.866 123.139 173.166C136.395 173.366 141.498 173.616 141.298 174.017C141.234 174.145 141.031 174.605 140.743 175.261L140.74 175.266C140.356 176.141 139.818 177.364 139.247 178.619C136.646 184.572 135.495 190.325 135.145 198.93L134.845 206.283L136.395 207.784C137.246 208.635 138.396 209.335 138.947 209.335C140.798 209.335 153.154 205.933 157.807 204.182C169.863 199.53 179.618 192.726 186.972 183.822L187.063 183.718C188.023 182.619 188.039 182.601 188.573 183.572C190.874 187.574 198.678 192.576 206.532 195.078C215.837 197.979 233.046 199.73 246.002 199.03C252.106 198.729 252.856 198.579 253.906 197.529C256.008 195.428 255.257 192.126 250.205 182.121C243.751 169.214 234.847 160.009 225.142 156.007L222.49 154.957L227.643 151.505C233.746 147.453 242.15 139.299 245.702 133.946C252.806 123.24 256.658 109.533 255.908 97.527C255.607 92.3243 254.057 87.2716 251.455 82.9194C247.775 76.7518 240.088 69.9413 231.592 65.3398C230.239 68.1042 227.944 70.7217 224.857 73.129C233.072 78.9585 238.808 86.8557 240.249 95.1257C240.5 96.7266 240.399 96.8266 236.247 99.2779C231.095 102.329 224.091 105.881 217.337 108.833C213.085 110.684 212.285 111.234 211.735 112.635C210.784 114.886 211.785 117.337 214.036 118.288C215.487 118.888 215.937 118.838 219.689 117.287C221.94 116.387 227.443 113.785 231.945 111.534L240.099 107.382L239.799 109.183C238.448 117.287 234.546 126.742 230.044 132.795L227.543 136.147L224.191 136.697C199.328 140.799 169.463 142.8 147.751 141.85C133.144 141.2 127.341 140.749 127.841 140.299C128.041 140.099 130.592 139.649 133.494 139.349C140.147 138.548 154.305 136.247 162.759 134.546C179.118 131.194 200.729 125.091 202.58 123.24C203.931 121.89 203.88 118.788 202.43 117.437C201.779 116.887 200.879 116.287 200.379 116.137C199.878 115.937 196.327 116.737 192.375 117.988C183.27 120.789 171.564 123.741 160.508 126.042C150.453 128.143 149.402 128.143 134.595 125.992C110.732 122.54 94.6238 118.488 87.2199 113.986C83.518 111.784 81.517 111.734 79.766 113.835C78.1152 115.736 78.1152 117.287 79.716 119.188C83.0177 123.09 98.4257 128.643 113.383 131.294C115.335 131.645 116.885 132.045 116.735 132.195C116.435 132.495 109.782 133.095 98.6759 133.796L89.5711 134.396L82.6676 132.545C74.6134 130.444 61.8568 126.242 54.703 123.34C49.0501 120.989 48.0996 120.889 46.2987 122.29C44.6478 123.59 44.1476 125.792 45.1481 127.693C45.9985 129.394 50.9511 131.595 63.2575 135.797C87.37 144.051 112.033 148.654 141.248 150.354C152.304 151.005 178.067 150.705 188.773 149.804C196.427 149.154 212.735 147.353 214.536 146.953C217.488 146.302 206.282 153.006 201.529 154.757C185.021 160.76 162.859 164.062 135.245 164.662C70.111 166.013 27.9391 151.555 13.8818 123.04C11.6807 118.538 9.42953 111.534 9.42953 109.233C9.42953 108.633 11.4306 109.733 17.0835 113.485C21.2857 116.237 26.6385 119.538 28.9897 120.739C33.0418 122.89 33.3419 122.94 34.8928 122.29C35.8933 121.89 36.8438 120.989 37.344 119.939C38.0444 118.438 38.0444 118.138 37.344 116.587C36.6937 115.286 35.5431 114.386 32.2914 112.585C26.7385 109.583 18.2841 103.98 12.9814 99.8782L8.82922 96.6265L9.12938 94.5754C9.97982 89.3227 14.7323 82.3691 20.4853 78.0669C28.1244 72.3265 35.9974 68.6908 50.0217 64.6484C48.7084 62.5508 48 60.3172 48 57.9999C48 57.6272 48.0183 57.2567 48.0545 56.8886ZM232.231 63.8322C232.737 62.4195 233 60.9728 233 59.4999C233 58.0236 232.736 56.5735 232.227 55.1577C236.753 56.0843 241.506 57.7624 243.051 59.057C245.952 61.5083 244.452 66.2607 240.8 66.2607C239.899 66.2607 238.148 65.8105 236.848 65.2102C235.972 64.8381 234.081 64.2935 232.231 63.8322ZM26.0382 85.5207C23.3368 86.6713 22.6364 89.6228 24.4373 91.924C26.5884 94.6254 46.7989 101.129 64.208 104.731C86.6696 109.333 107.03 111.134 130.993 110.634C160.358 110.033 181.369 106.982 210.034 99.2778C223.241 95.726 229.894 93.3747 230.995 91.924C232.896 89.5728 231.995 86.3711 229.194 85.3706C228.043 85.0204 225.942 85.4706 217.788 87.8719C212.285 89.4727 205.882 91.5238 203.53 92.3242C198.178 94.2252 195.676 94.8755 188.773 96.2262C186.581 96.6645 183.937 97.236 182.026 97.6489C181.32 97.8016 180.714 97.9326 180.268 98.0272C178.617 98.4274 176.016 98.8776 174.515 99.0277C173.014 99.2278 169.963 99.678 167.762 100.028C156.856 101.879 130.492 102.379 103.979 101.329C90.8218 100.779 88.1704 100.528 79.716 98.9777C74.5133 98.0272 68.21 96.7765 65.7087 96.2262C63.8592 95.7733 61.2123 95.178 59.0788 94.6981L59.0738 94.697C58.3815 94.5413 57.7434 94.3977 57.2043 94.2752C51.0511 92.9245 41.8964 90.3732 39.9454 89.4727C37.9944 88.5723 30.8907 85.8709 28.8896 85.2705C28.0892 85.0204 27.0387 85.1205 26.0382 85.5207Z" fill="black"/>
<path d="M207 159.5C204 160.5 196 163.5 195 164C194 164.5 194 164.5 193.5 165.5C193 166.5 192.5 170 192.5 170C192.5 170 192.226 173.5 192.5 174.5C192.773 175.5 196 179 196 179C196 179 199 181.5 200.5 182.5C202 183.5 207 185 207 185L214 187L223 188.5L231.5 189H240L243.5 188.5L238.5 180C238.5 180 236.322 175.859 234.5 173.5C232.306 170.659 228 167 228 167C228 167 223.5 163.5 222 163C220.5 162.5 213.5 160 213.5 160C213.5 160 210 158.5 207 159.5Z" fill="#00A35C" stroke="black"/>
<path d="M151.5 195C151.5 195 142.5 198.5 142.5 198V195.5L143 191L144 186.5L146 180.5L148 176C148 176 149.547 171.518 152 170.5C154 169.67 155.5 170.5 157 170.5C158.5 170.5 164 170 164 170C164 170 169 169.282 168 169.5C167 169.718 171 169 172 169C173 169 181 167 181 167C181 167 184 166.333 184.5 166.5C185 166.667 183 170 183 170L178.5 177L169.5 186C169 186.5 160.5 191 160.5 191L151.5 195Z" fill="#00A35C" stroke="black"/>
</g>
<defs>
<filter id="filter0_d_1366_8" x="49" y="35" width="83.5289" height="85.9065" filterUnits="userSpaceOnUse" color-interpolation-filters="sRGB">
<feFlood flood-opacity="0" result="BackgroundImageFix"/>
<feColorMatrix in="SourceAlpha" type="matrix" values="0 0 0 0 0 0 0 0 0 0 0 0 0 0 0 0 0 0 127 0" result="hardAlpha"/>
<feOffset dy="4"/>
<feGaussianBlur stdDeviation="2"/>
<feComposite in2="hardAlpha" operator="out"/>
<feColorMatrix type="matrix" values="0 0 0 0 0 0 0 0 0 0 0 0 0 0 0 0 0 0 0.25 0"/>
<feBlend mode="normal" in2="BackgroundImageFix" result="effect1_dropShadow_1366_8"/>
<feBlend mode="normal" in="SourceGraphic" in2="effect1_dropShadow_1366_8" result="shape"/>
</filter>
<filter id="filter1_d_1366_8" x="27" y="49" width="85.6058" height="85.6057" filterUnits="userSpaceOnUse" color-interpolation-filters="sRGB">
<feFlood flood-opacity="0" result="BackgroundImageFix"/>
<feColorMatrix in="SourceAlpha" type="matrix" values="0 0 0 0 0 0 0 0 0 0 0 0 0 0 0 0 0 0 127 0" result="hardAlpha"/>
<feOffset dy="4"/>
<feGaussianBlur stdDeviation="2"/>
<feComposite in2="hardAlpha" operator="out"/>
<feColorMatrix type="matrix" values="0 0 0 0 0 0 0 0 0 0 0 0 0 0 0 0 0 0 0.25 0"/>
<feBlend mode="normal" in2="BackgroundImageFix" result="effect1_dropShadow_1366_8"/>
<feBlend mode="normal" in="SourceGraphic" in2="effect1_dropShadow_1366_8" result="shape"/>
</filter>
<filter id="filter2_d_1366_8" x="117.593" y="44.3105" width="110.503" height="102.444" filterUnits="userSpaceOnUse" color-interpolation-filters="sRGB">
<feFlood flood-opacity="0" result="BackgroundImageFix"/>
<feColorMatrix in="SourceAlpha" type="matrix" values="0 0 0 0 0 0 0 0 0 0 0 0 0 0 0 0 0 0 127 0" result="hardAlpha"/>
<feOffset dy="4"/>
<feGaussianBlur stdDeviation="2"/>
<feComposite in2="hardAlpha" operator="out"/>
<feColorMatrix type="matrix" values="0 0 0 0 0 0 0 0 0 0 0 0 0 0 0 0 0 0 0.25 0"/>
<feBlend mode="normal" in2="BackgroundImageFix" result="effect1_dropShadow_1366_8"/>
<feBlend mode="normal" in="SourceGraphic" in2="effect1_dropShadow_1366_8" result="shape"/>
</filter>
<clipPath id="clip0_1366_8">
<rect width="256" height="256" fill="white"/>
</clipPath>
<clipPath id="clip1_1366_8">
<rect width="63" height="63" fill="white" transform="translate(31 65.9207) rotate(-15.5799)"/>
</clipPath>
<clipPath id="clip2_1366_8">
<rect width="100.02" height="66.6802" fill="white" transform="translate(110 88.0159) rotate(-32.687)"/>
</clipPath>
</defs>
</svg>
