<svg width="256" height="256" viewBox="0 0 256 256" fill="none" xmlns="http://www.w3.org/2000/svg">
<g clip-path="url(#clip0_1366_8)">
<path d="M242.5 107.5C242.5 140.913 201.5 171.5 128.5 166.5C60.2928 166.5 4.5 147.5 4.5 102C4.5 68.5868 60.2928 49 128.5 49C196.707 49 250.5 72 242.5 107.5Z" fill="#B79274"/>
<path d="M101.727 46.2504C94.3236 46.7507 87.7202 47.5011 85.1689 48.2015C84.0683 48.4516 80.1663 49.0519 76.4643 49.4521C72.7624 49.8523 68.7103 50.5527 67.4597 51.0029C66.209 51.4532 62.2069 52.6038 58.555 53.5543C54.8531 54.4547 50.801 55.7054 49.5504 56.2557C45.2982 58.1566 43.2971 58.3567 38.5447 57.4062C35.4931 56.8059 31.6411 56.5558 25.688 56.5558C12.4311 56.5558 7.42849 58.1066 7.42849 62.2087C7.42849 63.0091 7.87873 64.2098 8.47904 64.9602C9.62964 66.4109 11.4806 66.611 15.1825 65.7606C16.2831 65.5105 18.9845 65.1603 21.1856 65.0102L25.1877 64.71L23.4368 65.8106C14.232 71.5636 9.22943 75.9159 5.67758 81.2686C1.17525 88.0221 -0.375559 93.9252 0.0746751 102.48C2.07571 138.849 30.0402 162.061 81.4669 170.065C95.174 172.216 103.929 172.866 123.139 173.166C136.395 173.366 141.498 173.617 141.298 174.017C141.148 174.317 140.247 176.418 139.247 178.619C136.646 184.572 135.495 190.325 135.145 198.93L134.845 206.284L136.395 207.784C137.246 208.635 138.396 209.335 138.947 209.335C140.798 209.335 153.154 205.933 157.807 204.182C169.863 199.53 179.618 192.726 186.972 183.822C188.022 182.621 188.022 182.571 188.573 183.572C190.874 187.574 198.678 192.576 206.532 195.078C215.837 197.979 233.046 199.73 246.002 199.03C252.106 198.73 252.856 198.58 253.906 197.529C256.008 195.428 255.257 192.126 250.205 182.121C243.751 169.214 234.847 160.009 225.142 156.007L222.49 154.957L227.643 151.505C233.746 147.453 242.15 139.299 245.702 133.946C252.806 123.24 256.658 109.533 255.908 97.5271C255.607 92.3244 254.057 87.2717 251.455 82.9195C247.753 76.7163 239.999 69.8627 231.445 65.2603C229.294 64.1097 227.543 63.1092 227.543 63.0092C227.543 62.609 234.847 64.3599 236.848 65.2103C238.148 65.8106 239.899 66.2608 240.8 66.2608C244.452 66.2608 245.952 61.5084 243.051 59.0571C241.2 57.5063 234.747 55.4052 229.594 54.7048C225.342 54.0545 217.037 54.4047 211.935 55.4552C208.983 56.0055 208.033 56.0055 204.181 55.2051C201.779 54.7048 197.627 53.9545 195.026 53.5042C192.425 53.054 189.173 52.3536 187.772 51.9534C183.87 50.8529 158.007 47.251 150.003 46.7007C140.348 46.0504 109.281 45.7502 101.727 46.2504ZM147.251 54.5047C152.504 54.955 159.007 55.6053 161.759 56.0055C164.51 56.4057 168.212 56.856 170.013 57.0561C181.419 58.1066 193.775 60.5078 199.678 62.809C201.029 63.3593 204.681 64.4599 207.883 65.2603C224.691 69.6626 237.948 81.919 240.249 95.1258C240.5 96.7267 240.399 96.8267 236.247 99.278C231.095 102.33 224.091 105.881 217.337 108.833C213.085 110.684 212.285 111.234 211.735 112.635C210.784 114.886 211.785 117.337 214.036 118.288C215.487 118.888 215.937 118.838 219.689 117.287C221.94 116.387 227.443 113.786 231.945 111.534L240.099 107.382L239.799 109.183C238.448 117.287 234.546 126.742 230.044 132.795L227.543 136.147L224.191 136.697C199.328 140.8 169.463 142.801 147.751 141.85C133.144 141.2 127.341 140.75 127.841 140.299C128.041 140.099 130.592 139.649 133.494 139.349C140.147 138.548 154.305 136.247 162.759 134.546C179.118 131.195 200.729 125.091 202.58 123.24C203.931 121.89 203.88 118.788 202.43 117.437C201.779 116.887 200.879 116.287 200.379 116.137C199.878 115.937 196.327 116.737 192.375 117.988C183.27 120.789 171.564 123.741 160.508 126.042C150.453 128.143 149.402 128.143 134.595 125.992C110.732 122.54 94.6238 118.488 87.2199 113.986C83.518 111.784 81.517 111.734 79.766 113.836C78.1152 115.737 78.1152 117.287 79.716 119.188C83.0177 123.09 98.4257 128.643 113.383 131.295C115.335 131.645 116.885 132.045 116.735 132.195C116.435 132.495 109.782 133.096 98.6759 133.796L89.5711 134.396L82.6676 132.545C74.6134 130.444 61.8568 126.242 54.703 123.34C49.0501 120.989 48.0996 120.889 46.2987 122.29C44.6478 123.591 44.1476 125.792 45.1481 127.693C45.9985 129.394 50.9511 131.595 63.2575 135.797C87.37 144.051 112.033 148.654 141.248 150.354C152.304 151.005 178.067 150.705 188.773 149.804C196.427 149.154 212.735 147.353 214.536 146.953C217.488 146.302 206.282 153.006 201.529 154.757C185.021 160.76 162.859 164.062 135.245 164.662C70.111 166.013 27.9391 151.555 13.8818 123.04C11.6807 118.538 9.42953 111.534 9.42953 109.233C9.42953 108.633 11.4306 109.733 17.0835 113.485C21.2857 116.237 26.6385 119.538 28.9897 120.739C33.0418 122.89 33.3419 122.94 34.8928 122.29C35.8933 121.89 36.8438 120.989 37.344 119.939C38.0444 118.438 38.0444 118.138 37.344 116.587C36.6937 115.286 35.5431 114.386 32.2914 112.585C26.7385 109.583 18.2841 103.98 12.9814 99.8783L8.82922 96.6266L9.12938 94.5755C9.97982 89.3228 14.7323 82.3692 20.4853 78.067C29.1398 71.5636 38.0944 67.7616 55.9537 63.0092C58.3049 62.4089 60.8062 61.6585 61.5566 61.3583C63.7577 60.4578 71.3617 58.857 76.2142 58.2567C78.7155 57.9565 82.3174 57.3562 84.2184 56.956C96.5748 54.3046 129.742 53.054 147.251 54.5047Z" fill="black"/>
<path d="M26.0382 85.5208C23.3368 86.6714 22.6364 89.6229 24.4373 91.9241C26.5884 94.6255 46.7989 101.129 64.208 104.731C86.6696 109.333 107.03 111.134 130.993 110.634C160.358 110.034 181.369 106.982 210.034 99.2779C223.241 95.7261 229.894 93.3749 230.995 91.9241C232.896 89.5729 231.995 86.3712 229.194 85.3707C228.043 85.0205 225.942 85.4707 217.788 87.872C212.285 89.4728 205.882 91.5239 203.53 92.3243C198.178 94.2253 195.676 94.8756 188.773 96.2263C185.771 96.8266 181.919 97.6771 180.268 98.0273C178.617 98.4275 176.016 98.8777 174.515 99.0278C173.014 99.2279 169.963 99.6781 167.762 100.028C156.856 101.879 130.492 102.38 103.979 101.329C90.8218 100.779 88.1704 100.529 79.716 98.9778C74.5133 98.0273 68.21 96.7766 65.7087 96.2263C63.2575 95.626 59.4055 94.7756 57.2043 94.2753C51.0511 92.9246 41.8964 90.3733 39.9454 89.4728C37.9944 88.5724 30.8907 85.871 28.8896 85.2706C28.0892 85.0205 27.0387 85.1206 26.0382 85.5208Z" fill="black"/>
<path d="M235 133.5C235 150.345 187.08 167 125.5 167C63.9202 167 29.5001 145 11 131.5C4.99994 62.0002 -29 89.0001 123 106.5C189.5 121 297.5 39.5 235 133.5Z" fill="#B79274"/>
<path fill-rule="evenodd" clip-rule="evenodd" d="M48.0545 56.8886C44.7561 58.1886 42.7043 58.2381 38.5447 57.4061C35.4931 56.8058 31.6411 56.5557 25.688 56.5557C12.4311 56.5557 7.42849 58.1065 7.42849 62.2086C7.42849 63.009 7.87873 64.2097 8.47904 64.9601C9.62964 66.4108 11.4806 66.6109 15.1825 65.7605C16.2831 65.5104 18.9845 65.1602 21.1856 65.0101L25.1877 64.7099L23.4368 65.8105C14.232 71.5635 9.22943 75.9158 5.67758 81.2685C1.17525 88.022 -0.375559 93.9251 0.0746751 102.48C2.07571 138.848 30.0402 162.06 81.4669 170.065C95.174 172.216 103.929 172.866 123.139 173.166C136.395 173.366 141.498 173.616 141.298 174.017C141.234 174.145 141.031 174.605 140.743 175.261L140.74 175.266C140.356 176.141 139.818 177.364 139.247 178.619C136.646 184.572 135.495 190.325 135.145 198.93L134.845 206.283L136.395 207.784C137.246 208.635 138.396 209.335 138.947 209.335C140.798 209.335 153.154 205.933 157.807 204.182C169.863 199.53 179.618 192.726 186.972 183.822L187.063 183.718C188.023 182.619 188.039 182.601 188.573 183.572C190.874 187.574 198.678 192.576 206.532 195.078C215.837 197.979 233.046 199.73 246.002 199.03C252.106 198.729 252.856 198.579 253.906 197.529C256.008 195.428 255.257 192.126 250.205 182.121C243.751 169.214 234.847 160.009 225.142 156.007L222.49 154.957L227.643 151.505C233.746 147.453 242.15 139.299 245.702 133.946C252.806 123.24 256.658 109.533 255.908 97.527C255.607 92.3243 254.057 87.2716 251.455 82.9194C247.775 76.7518 240.088 69.9413 231.592 65.3398C230.239 68.1042 227.944 70.7217 224.857 73.129C233.072 78.9585 238.808 86.8557 240.249 95.1257C240.5 96.7266 240.399 96.8266 236.247 99.2779C231.095 102.329 224.091 105.881 217.337 108.833C213.085 110.684 212.285 111.234 211.735 112.635C210.784 114.886 211.785 117.337 214.036 118.288C215.487 118.888 215.937 118.838 219.689 117.287C221.94 116.387 227.443 113.785 231.945 111.534L240.099 107.382L239.799 109.183C238.448 117.287 234.546 126.742 230.044 132.795L227.543 136.147L224.191 136.697C199.328 140.799 169.463 142.8 147.751 141.85C133.144 141.2 127.341 140.749 127.841 140.299C128.041 140.099 130.592 139.649 133.494 139.349C140.147 138.548 154.305 136.247 162.759 134.546C179.118 131.194 200.729 125.091 202.58 123.24C203.931 121.89 203.88 118.788 202.43 117.437C201.779 116.887 200.879 116.287 200.379 116.137C199.878 115.937 196.327 116.737 192.375 117.988C183.27 120.789 171.564 123.741 160.508 126.042C150.453 128.143 149.402 128.143 134.595 125.992C110.732 122.54 94.6238 118.488 87.2199 113.986C83.518 111.784 81.517 111.734 79.766 113.835C78.1152 115.736 78.1152 117.287 79.716 119.188C83.0177 123.09 98.4257 128.643 113.383 131.294C115.335 131.645 116.885 132.045 116.735 132.195C116.435 132.495 109.782 133.095 98.6759 133.796L89.5711 134.396L82.6676 132.545C74.6134 130.444 61.8568 126.242 54.703 123.34C49.0501 120.989 48.0996 120.889 46.2987 122.29C44.6478 123.59 44.1476 125.792 45.1481 127.693C45.9985 129.394 50.9511 131.595 63.2575 135.797C87.37 144.051 112.033 148.654 141.248 150.354C152.304 151.005 178.067 150.705 188.773 149.804C196.427 149.154 212.735 147.353 214.536 146.953C217.488 146.302 206.282 153.006 201.529 154.757C185.021 160.76 162.859 164.062 135.245 164.662C70.111 166.013 27.9391 151.555 13.8818 123.04C11.6807 118.538 9.42953 111.534 9.42953 109.233C9.42953 108.633 11.4306 109.733 17.0835 113.485C21.2857 116.237 26.6385 119.538 28.9897 120.739C33.0418 122.89 33.3419 122.94 34.8928 122.29C35.8933 121.89 36.8438 120.989 37.344 119.939C38.0444 118.438 38.0444 118.138 37.344 116.587C36.6937 115.286 35.5431 114.386 32.2914 112.585C26.7385 109.583 18.2841 103.98 12.9814 99.8782L8.82922 96.6265L9.12938 94.5754C9.97982 89.3227 14.7323 82.3691 20.4853 78.0669C28.1244 72.3265 35.9974 68.6908 50.0217 64.6484C48.7084 62.5508 48 60.3172 48 57.9999C48 57.6272 48.0183 57.2567 48.0545 56.8886ZM232.231 63.8322C232.737 62.4195 233 60.9728 233 59.4999C233 58.0236 232.736 56.5735 232.227 55.1577C236.753 56.0843 241.506 57.7624 243.051 59.057C245.952 61.5083 244.452 66.2607 240.8 66.2607C239.899 66.2607 238.148 65.8105 236.848 65.2102C235.972 64.8381 234.081 64.2935 232.231 63.8322ZM26.0382 85.5207C23.3368 86.6713 22.6364 89.6228 24.4373 91.924C26.5884 94.6254 46.7989 101.129 64.208 104.731C86.6696 109.333 107.03 111.134 130.993 110.634C160.358 110.033 181.369 106.982 210.034 99.2778C223.241 95.726 229.894 93.3747 230.995 91.924C232.896 89.5728 231.995 86.3711 229.194 85.3706C228.043 85.0204 225.942 85.4706 217.788 87.8719C212.285 89.4727 205.882 91.5238 203.53 92.3242C198.178 94.2252 195.676 94.8755 188.773 96.2262C186.581 96.6645 183.937 97.236 182.026 97.6489C181.32 97.8016 180.714 97.9326 180.268 98.0272C178.617 98.4274 176.016 98.8776 174.515 99.0277C173.014 99.2278 169.963 99.678 167.762 100.028C156.856 101.879 130.492 102.379 103.979 101.329C90.8218 100.779 88.1704 100.528 79.716 98.9777C74.5133 98.0272 68.21 96.7765 65.7087 96.2262C63.8592 95.7733 61.2123 95.178 59.0788 94.6981L59.0738 94.697C58.3815 94.5413 57.7434 94.3977 57.2043 94.2752C51.0511 92.9245 41.8964 90.3732 39.9454 89.4727C37.9944 88.5723 30.8907 85.8709 28.8896 85.2705C28.0892 85.0204 27.0387 85.1205 26.0382 85.5207Z" fill="black"/>
<path d="M207 159.5C204 160.5 196 163.5 195 164C194 164.5 194 164.5 193.5 165.5C193 166.5 192.5 170 192.5 170C192.5 170 192.226 173.5 192.5 174.5C192.773 175.5 196 179 196 179C196 179 199 181.5 200.5 182.5C202 183.5 207 185 207 185L214 187L223 188.5L231.5 189H240L243.5 188.5L238.5 180C238.5 180 236.322 175.859 234.5 173.5C232.306 170.659 228 167 228 167C228 167 223.5 163.5 222 163C220.5 162.5 213.5 160 213.5 160C213.5 160 210 158.5 207 159.5Z" fill="#00A35C" stroke="black"/>
<path d="M151.5 195C151.5 195 142.5 198.5 142.5 198V195.5L143 191L144 186.5L146 180.5L148 176C148 176 149.547 171.518 152 170.5C154 169.67 155.5 170.5 157 170.5C158.5 170.5 164 170 164 170C164 170 169 169.282 168 169.5C167 169.718 171 169 172 169C173 169 181 167 181 167C181 167 184 166.333 184.5 166.5C185 166.667 183 170 183 170L178.5 177L169.5 186C169 186.5 160.5 191 160.5 191L151.5 195Z" fill="#00A35C" stroke="black"/>
</g>
<defs>
<clipPath id="clip0_1366_8">
<rect width="256" height="256" fill="white"/>
</clipPath>
</defs>
</svg>
